7 Novelty and No Analogue Futures – Palaeoecological data-science: a data driven curriculum
…
Arranging by distance helps.

names_matches %>%
  filter(distance < 0.3)  %>% # everything above 0.3 looks like a bad match
  arrange(desc(distance)) %>% 
  print(n = 15)

# A tibble: 49 × 3
# Groups:   value.x [48]
   value.x                   value.y    distance
   <chr>                     <chr>         <dbl>
 1 asteraceae undiff.        asterx        0.296
 2 chenopodium-type          chenoamx      0.292
 3 ilex                      piceax        0.25 
 4 rhus                      rubus         0.217
 5 caprifoliaceae sensu lato caprifolia    0.2  
 6 ostrya/carpinus           ostrycar      0.197
 7 sarcobatus vermiculatus   sarcobatus    0.188
 8 morus                     cornus        0.178
 9 fabaceae undiff.          fabaceae      0.167
10 rhamnaceae/vitaceae       rhamnaceae    0.158
11 larix                     larixpseu     0.148
12 plantago                  plantaginx    0.142
13 urticaceae                urticacx      0.142
14 amorpha-type              amorpha       0.139
15 ericaceae                 arecaceae     0.116
# ℹ 34 more rows
…
